…
``` r
eof_results <- tune_eof(fine, k = 1:8, kfolds = 3)
```

    ℹ Computing patterns for 3 folds

    ✔ Computing patterns for 3 folds [547ms]

    Evaluating 8 k values across 3 folds

``` r
eof_results
```

    # A tibble: 24 × 5
           k  fold  rmse cor_spatial cor_temporal
       <int> <int> <dbl>       <dbl>        <dbl>
     1     1     1 0.807       0.790        0.998
     2     1     2 0.657       0.930        0.998
     3     1     3 0.671       0.922        0.997
     4     2     1 0.389       0.931        0.999
     5     2     2 0.308       0.971        0.999
     6     2     3 0.308       0.974        1.000
     7     3     1 0.353       0.940        1.000
     8     3     2 0.290       0.976        1.000
     9     3     3 0.292       0.976        1.000
    10     4     1 0.336       0.944        1.000
    # ℹ 14 more rows
…
    Evaluating 25 parameter combinations across 3 folds
     ■■■■■■■■■■■■                      36% |  ETA:  5s

     ■■■■■■■■■■■■■■■■■■■■■■■■■         80% |  ETA:  1s

``` r
cca_results
```

    # A tibble: 75 × 7
       k_pred k_resp k_cca  fold  rmse cor_spatial cor_temporal
        <int>  <int> <int> <int> <dbl>       <dbl>        <dbl>
     1      1      1     1     1 0.808       0.790        0.998
     2      1      1     1     2 0.658       0.930        0.998
     3      1      1     1     3 0.671       0.922        0.997
     4      1      2     1     1 1.00        0.761        0.998
     5      1      2     1     2 0.605       0.934        0.998
     6      1      2     1     3 0.669       0.913        0.997
     7      1      3     1     1 1.07        0.737        0.998
     8      1      3     1     2 0.622       0.931        0.998
     9      1      3     1     3 0.727       0.893        0.997
    10      1      4     1     1 1.07        0.731        0.998
    # ℹ 65 more rows
…
